{ "RESULTS": [
              {
              "name": "Montreal Acres, Maryland",
              "type": "city",
              "c": "US",
              "zmw": "21001.28.99999",
              "tz": "America/New_York",
              "tzs": "EDT",
              "l": "/q/zmw:21001.28.99999",
              "ll": "39.529999 -76.220001",
              "lat": "39.529999",
              "lon": "-76.220001"
              },
              {
              "name": "Montreal Lake, Canada",
              "type": "city",
              "c": "CA",
              "zmw": "00000.25.71454",
              "tz": "America/Regina",
              "tzs": "CST",
              "l": "/q/zmw:00000.25.71454",
              "ll": "54.060001 -105.809998",
              "lat": "54.060001",
              "lon": "-105.809998"
              },
              {
              "name": "Montreal River, Canada",
              "type": "city",
              "c": "CA",
              "zmw": "00000.29.71640",
              "tz": "America/Toronto",
              "tzs": "EDT",
              "l": "/q/zmw:00000.29.71640",
              "ll": "47.230000 -84.650002",
              "lat": "47.230000",
              "lon": "-84.650002"
              },
              {
              "name": "Montreal Technoparc, Canada",
              "type": "city",
              "c": "CA",
              "zmw": "00000.82.71612",
              "tz": "America/Toronto",
              "tzs": "EDT",
              "l": "/q/zmw:00000.82.71612",
              "ll": "45.480000 -73.540001",
              "lat": "45.480000",
              "lon": "-73.540001"
              },
              {
              "name": "Montreal, Bahamas",
              "type": "city",
              "c": "BS",
              "zmw": "00000.13.78088",
              "tz": "America/Nassau",
              "tzs": "EDT",
              "l": "/q/zmw:00000.13.78088",
              "ll": "23.969999 -74.500000",
              "lat": "23.969999",
              "lon": "-74.500000"
              },
              {
              "name": "Montreal, Brazil",
              "type": "city",
              "c": "BR",
              "zmw": "00000.42.82704",
              "tz": "America/Manaus",
              "tzs": "-04",
              "l": "/q/zmw:00000.42.82704",
              "ll": "-7.450000 -72.470001",
              "lat": "-7.450000",
              "lon": "-72.470001"
              },
              {
              "name": "Montreal, Canada",
              "type": "city",
              "c": "CA",
              "zmw": "00000.94.71612",
              "tz": "America/Toronto",
              "tzs": "EDT",
              "l": "/q/zmw:00000.94.71612",
              "ll": "45.509998 -73.550003",
              "lat": "45.509998",
              "lon": "-73.550003"
              },
              {
              "name": "Montreal, France",
              "type": "city",
              "c": "FR",
              "zmw": "00000.168.07265",
              "tz": "Europe/Paris",
              "tzs": "CEST",
              "l": "/q/zmw:00000.168.07265",
              "ll": "47.529999 4.030000",
              "lat": "47.529999",
              "lon": "4.030000"
              },
              {
              "name": "Montreal, Georgia",
              "type": "city",
              "c": "US",
              "zmw": "30084.3.99999",
              "tz": "America/New_York",
              "tzs": "EDT",
              "l": "/q/zmw:30084.3.99999",
              "ll": "33.820000 -84.239998",
              "lat": "33.820000",
              "lon": "-84.239998"
              },
              {
              "name": "Montreal, Missouri",
              "type": "city",
              "c": "US",
              "zmw": "65591.1.99999",
              "tz": "America/Chicago",
              "tzs": "CDT",
              "l": "/q/zmw:65591.1.99999",
              "ll": "37.970001 -92.589996",
              "lat": "37.970001",
              "lon": "-92.589996"
              },
              {
              "name": "Montreal, Wisconsin",
              "type": "city",
              "c": "US",
              "zmw": "54550.1.99999",
              "tz": "America/Chicago",
              "tzs": "CDT",
              "l": "/q/zmw:54550.1.99999",
              "ll": "46.430000 -90.250000",
              "lat": "46.430000",
              "lon": "-90.250000"
              },
              {
              "name": "Montreal-Est, Canada", 
              "type": "city", 
              "c": "CA",
              "zmw": "00000.51.71675",
              "tz": "America/Toronto",
              "tzs": "EDT",
              "l": "/q/zmw:00000.51.71675",
              "ll": "45.630001 -73.519997",
              "lat": "45.630001",
              "lon": "-73.519997"
              },
              {
              "name": "Montreal-la-Cluse, France", 
              "type": "city", 
              "c": "FR",
              "zmw": "00000.252.07482",
              "tz": "Europe/Paris",
              "tzs": "CEST",
              "l": "/q/zmw:00000.252.07482",
              "ll": "46.180000 5.580000",
              "lat": "46.180000",
              "lon": "5.580000"
              },
              {
              "name": "Montreal-les-Sources, France", 
              "type": "city", 
              "c": "FR",
              "zmw": "00000.61.07586",
              "tz": "Europe/Paris",
              "tzs": "CEST",
              "l": "/q/zmw:00000.61.07586",
              "ll": "44.400002 5.300000",
              "lat": "44.400002",
              "lon": "5.300000"
              },
              {
              "name": "Montreal-Nord, Canada", 
              "type": "city", 
              "c": "CA",
              "zmw": "00000.52.71675",
              "tz": "America/Toronto",
              "tzs": "EDT",
              "l": "/q/zmw:00000.52.71675",
              "ll": "45.599998 -73.620003",
              "lat": "45.599998",
              "lon": "-73.620003"
              },
              {
              "name": "Montreal-Ouest, Canada", 
              "type": "city", 
              "c": "CA",
              "zmw": "00000.35.71183",
              "tz": "America/Toronto",
              "tzs": "EDT",
              "l": "/q/zmw:00000.35.71183",
              "ll": "45.450001 -73.650002",
              "lat": "45.450001",
              "lon": "-73.650002"
              }
              ]
}
